module gitlab.com/Divis/appdynamics-rest-api

go 1.15

//	github.com/dlopes7/go-appdynamics-rest-api v0.0.0-20181220154806-f6b32eb55e51
require github.com/op/go-logging v0.0.0-20160315200505-970db520ece7
